<svg width="215" height="34" viewBox="0 0 215 34" fill="none" xmlns="http://www.w3.org/2000/svg">
<path d="M43.3967 24.6259C42.1768 24.6259 40.9929 24.4753 39.8449 24.1739C38.6969 23.8725 37.764 23.4706 37.0465 22.9684L38.4457 19.8256C39.1201 20.2705 39.9024 20.6292 40.7921 20.9019C41.6817 21.1746 42.5572 21.3109 43.4183 21.3109C45.0542 21.3109 45.8722 20.9019 45.8722 20.0839C45.8722 19.6534 45.6355 19.3377 45.1619 19.1368C44.7027 18.9215 43.9564 18.6991 42.9232 18.4695C41.7894 18.2255 40.8422 17.9672 40.0817 17.6945C39.3212 17.4075 38.6681 16.9555 38.1228 16.3384C37.5776 15.7213 37.3048 14.8889 37.3048 13.8413C37.3048 12.9229 37.556 12.0977 38.0582 11.3658C38.5604 10.6196 39.3068 10.0312 40.297 9.60068C41.3016 9.17015 42.5286 8.95489 43.9779 8.95489C44.9681 8.95489 45.9439 9.06969 46.9055 9.29931C47.8671 9.51457 48.7137 9.83746 49.4456 10.268L48.1325 13.4323C46.6973 12.6574 45.3055 12.2699 43.9564 12.2699C43.1098 12.2699 42.4926 12.3991 42.1052 12.6574C41.7177 12.9013 41.524 13.2242 41.524 13.6261C41.524 14.0279 41.7536 14.3293 42.2128 14.5302C42.6719 14.7311 43.4112 14.9392 44.43 15.1544C45.578 15.3984 46.5251 15.6639 47.2714 15.9509C48.032 16.2236 48.6851 16.6684 49.2303 17.2855C49.79 17.8883 50.0698 18.7134 50.0698 19.761C50.0698 20.6651 49.8186 21.4831 49.3164 22.215C48.8142 22.9469 48.0608 23.5352 47.0562 23.9802C46.0516 24.4107 44.8319 24.6259 43.3967 24.6259ZM60.1109 23.851C59.7665 24.0663 59.3431 24.2314 58.8409 24.3461C58.3529 24.4608 57.8292 24.5183 57.2695 24.5183C55.7482 24.5183 54.5787 24.1453 53.7607 23.399C52.9427 22.6526 52.5337 21.5406 52.5337 20.0624V16.1446H50.8332V13.0879H52.5337V10.0527H56.6237V13.0879H59.293V16.1446H56.6237V20.0193C56.6237 20.4355 56.7313 20.7656 56.9466 21.0096C57.1763 21.2392 57.4776 21.354 57.8507 21.354C58.3243 21.354 58.7404 21.232 59.0992 20.988L60.1109 23.851ZM66.876 12.4637C68.8133 12.4637 70.2913 12.9085 71.3104 13.7983C72.3292 14.6737 72.8387 16.0226 72.8387 17.8452V24.3246H69.0286V22.8177C68.4401 23.9515 67.2921 24.5183 65.5844 24.5183C64.6803 24.5183 63.898 24.3605 63.2381 24.0447C62.5778 23.729 62.0756 23.3057 61.7312 22.7747C61.401 22.2294 61.2361 21.6123 61.2361 20.9234C61.2361 19.8184 61.6593 18.9646 62.5062 18.3618C63.3528 17.7447 64.6588 17.4362 66.4239 17.4362H68.7487C68.6769 16.202 67.8518 15.585 66.2732 15.585C65.7136 15.585 65.1466 15.6782 64.5727 15.8648C63.9986 16.037 63.5106 16.281 63.1089 16.5967L61.7312 13.8198C62.377 13.3893 63.1591 13.0592 64.0776 12.8296C65.0103 12.5856 65.943 12.4637 66.876 12.4637ZM66.7253 21.9352C67.1989 21.9352 67.615 21.8204 67.9738 21.5908C68.3324 21.3611 68.5907 21.0239 68.7487 20.579V19.5673H66.9836C65.7923 19.5673 65.1969 19.9619 65.1969 20.7512C65.1969 21.11 65.3332 21.397 65.6059 21.6123C65.8785 21.8275 66.2517 21.9352 66.7253 21.9352ZM79.5319 14.0566C79.948 13.5256 80.4861 13.131 81.1463 12.8727C81.8207 12.6 82.5886 12.4637 83.4496 12.4637V16.1446C83.0764 16.1016 82.7679 16.0801 82.524 16.0801C81.6485 16.0801 80.9597 16.3168 80.4575 16.7904C79.9695 17.264 79.7256 17.9887 79.7256 18.9646V24.3246H75.6356V12.6574H79.5319V14.0566ZM93.7607 23.851C93.4162 24.0663 92.993 24.2314 92.4906 24.3461C92.0028 24.4608 91.4789 24.5183 90.9192 24.5183C89.3982 24.5183 88.2284 24.1453 87.4104 23.399C86.5924 22.6526 86.1834 21.5406 86.1834 20.0624V16.1446H84.4829V13.0879H86.1834V10.0527H90.2734V13.0879H92.9427V16.1446H90.2734V20.0193C90.2734 20.4355 90.3811 20.7656 90.5963 21.0096C90.826 21.2392 91.1274 21.354 91.5004 21.354C91.974 21.354 92.3903 21.232 92.7489 20.988L93.7607 23.851ZM107.823 12.6574V24.3246H103.927V23.0761C103.496 23.5496 102.98 23.9085 102.377 24.1524C101.774 24.3963 101.136 24.5183 100.461 24.5183C98.9543 24.5183 97.7488 24.0734 96.8447 23.1837C95.955 22.294 95.5101 20.9593 95.5101 19.1798V12.6574H99.6001V18.5125C99.6001 19.3879 99.7652 20.0265 100.095 20.4283C100.425 20.8302 100.906 21.0311 101.537 21.0311C102.183 21.0311 102.707 20.8086 103.109 20.3638C103.525 19.9045 103.733 19.2085 103.733 18.2757V12.6574H107.823ZM118.013 12.4637C119.075 12.4637 120.037 12.7148 120.898 13.2171C121.773 13.705 122.462 14.4082 122.964 15.3266C123.481 16.2307 123.739 17.2855 123.739 18.491C123.739 19.6965 123.481 20.7584 122.964 21.6769C122.462 22.581 121.773 23.2842 120.898 23.7864C120.037 24.2744 119.075 24.5183 118.013 24.5183C116.65 24.5183 115.566 24.1093 114.763 23.2913V28.5007H110.673V12.6574H114.569V13.8198C115.33 12.9157 116.478 12.4637 118.013 12.4637ZM117.152 21.2679C117.87 21.2679 118.458 21.0239 118.917 20.536C119.377 20.0337 119.606 19.352 119.606 18.491C119.606 17.6299 119.377 16.9555 118.917 16.4675C118.458 15.9653 117.87 15.7141 117.152 15.7141C116.435 15.7141 115.846 15.9653 115.387 16.4675C114.928 16.9555 114.698 17.6299 114.698 18.491C114.698 19.352 114.928 20.0337 115.387 20.536C115.846 21.0239 116.435 21.2679 117.152 21.2679ZM137.63 16.4675C138.491 16.7689 139.166 17.2425 139.654 17.8883C140.142 18.5197 140.386 19.2875 140.386 20.1916C140.386 21.5118 139.855 22.5308 138.793 23.2483C137.731 23.9657 136.195 24.3246 134.186 24.3246H126.049V9.25626H133.756C135.679 9.25626 137.142 9.61503 138.147 10.3326C139.151 11.0358 139.654 11.9901 139.654 13.1955C139.654 13.9131 139.474 14.5589 139.116 15.1329C138.771 15.6926 138.276 16.1375 137.63 16.4675ZM130.268 12.3345V15.2405H133.196C134.631 15.2405 135.349 14.7526 135.349 13.7768C135.349 12.8152 134.631 12.3345 133.196 12.3345H130.268ZM133.842 21.2463C135.334 21.2463 136.08 20.7369 136.08 19.718C136.08 18.6991 135.334 18.1896 133.842 18.1896H130.268V21.2463H133.842ZM146.511 14.0566C146.927 13.5256 147.465 13.131 148.125 12.8727C148.8 12.6 149.568 12.4637 150.429 12.4637V16.1446C150.056 16.1016 149.747 16.0801 149.503 16.0801C148.628 16.0801 147.939 16.3168 147.437 16.7904C146.949 17.264 146.705 17.9887 146.705 18.9646V24.3246H142.615V12.6574H146.511V14.0566ZM158.082 24.5183C156.833 24.5183 155.707 24.26 154.702 23.7434C153.698 23.2267 152.908 22.5093 152.334 21.5908C151.775 20.6723 151.495 19.6319 151.495 18.4695C151.495 17.3214 151.775 16.2881 152.334 15.3697C152.908 14.4512 153.69 13.7409 154.681 13.2386C155.685 12.722 156.819 12.4637 158.082 12.4637C159.345 12.4637 160.478 12.722 161.483 13.2386C162.487 13.7409 163.27 14.4512 163.829 15.3697C164.389 16.2738 164.669 17.307 164.669 18.4695C164.669 19.6319 164.389 20.6723 163.829 21.5908C163.27 22.5093 162.487 23.2267 161.483 23.7434C160.478 24.26 159.345 24.5183 158.082 24.5183ZM158.082 21.2679C158.799 21.2679 159.388 21.0239 159.847 20.536C160.306 20.0337 160.536 19.3449 160.536 18.4695C160.536 17.6084 160.306 16.9339 159.847 16.446C159.388 15.9581 158.799 15.7141 158.082 15.7141C157.364 15.7141 156.776 15.9581 156.317 16.446C155.857 16.9339 155.628 17.6084 155.628 18.4695C155.628 19.3449 155.857 20.0337 156.317 20.536C156.776 21.0239 157.364 21.2679 158.082 21.2679ZM172.074 20.2346L170.869 21.4616V24.3246H166.779V8.35216H170.869V16.7258L175.045 12.6574H179.888L175.045 17.6515L180.297 24.3246H175.346L172.074 20.2346ZM193.151 18.5125C193.151 18.5412 193.13 18.8785 193.087 19.5242H184.605C184.777 20.127 185.107 20.5934 185.595 20.9234C186.098 21.2392 186.722 21.397 187.468 21.397C188.028 21.397 188.509 21.3181 188.91 21.1602C189.327 21.0024 189.743 20.7441 190.159 20.3853L192.312 22.624C191.178 23.887 189.52 24.5183 187.339 24.5183C185.976 24.5183 184.777 24.26 183.744 23.7434C182.711 23.2267 181.907 22.5093 181.333 21.5908C180.774 20.6723 180.494 19.6319 180.494 18.4695C180.494 17.3214 180.766 16.2953 181.312 15.3912C181.871 14.4728 182.639 13.7552 183.615 13.2386C184.591 12.722 185.689 12.4637 186.909 12.4637C188.071 12.4637 189.126 12.7076 190.073 13.1955C191.02 13.6691 191.766 14.3651 192.312 15.2836C192.871 16.1877 193.151 17.264 193.151 18.5125ZM186.93 15.3697C186.299 15.3697 185.768 15.5491 185.337 15.9078C184.921 16.2666 184.655 16.7545 184.541 17.3716H189.319C189.205 16.7545 188.932 16.2666 188.501 15.9078C188.085 15.5491 187.561 15.3697 186.93 15.3697ZM199.148 14.0566C199.565 13.5256 200.103 13.131 200.763 12.8727C201.437 12.6 202.205 12.4637 203.066 12.4637V16.1446C202.693 16.1016 202.385 16.0801 202.14 16.0801C201.265 16.0801 200.576 16.3168 200.074 16.7904C199.586 17.264 199.342 17.9887 199.342 18.9646V24.3246H195.252V12.6574H199.148V14.0566ZM209.231 24.5183C208.255 24.5183 207.294 24.4107 206.346 24.1954C205.399 23.9657 204.639 23.6717 204.065 23.3129L205.292 20.5144C205.822 20.8445 206.454 21.11 207.186 21.3109C207.918 21.4975 208.642 21.5908 209.36 21.5908C210.02 21.5908 210.487 21.5262 210.759 21.397C211.046 21.2535 211.19 21.0526 211.19 20.7943C211.19 20.536 211.018 20.3566 210.673 20.2561C210.343 20.1413 209.812 20.0337 209.08 19.9332C208.147 19.8184 207.351 19.6678 206.691 19.4812C206.045 19.2946 205.485 18.9502 205.012 18.4479C204.538 17.9457 204.301 17.2425 204.301 16.3384C204.301 15.5921 204.524 14.932 204.969 14.358C205.413 13.7696 206.059 13.3103 206.906 12.9803C207.767 12.6359 208.793 12.4637 209.984 12.4637C210.831 12.4637 211.671 12.5498 212.503 12.722C213.335 12.8942 214.031 13.1381 214.591 13.4539L213.364 16.2307C212.331 15.6567 211.211 15.3697 210.006 15.3697C209.36 15.3697 208.887 15.4486 208.585 15.6065C208.284 15.75 208.133 15.9437 208.133 16.1877C208.133 16.4604 208.298 16.6541 208.628 16.7689C208.958 16.8694 209.503 16.977 210.264 17.0918C211.226 17.2353 212.022 17.4003 212.654 17.5869C213.285 17.7735 213.83 18.1179 214.29 18.6201C214.763 19.1081 215 19.7969 215 20.6867C215 21.4185 214.777 22.0788 214.333 22.6671C213.888 23.2412 213.228 23.6932 212.352 24.0232C211.491 24.3532 210.451 24.5183 209.231 24.5183Z" fill="#182443"/>
<path fill-rule="evenodd" clip-rule="evenodd" d="M8.35744 2.6225H27.6333C30.7871 2.6225 33.3671 5.20232 33.3671 8.35604V27.6321C33.3671 30.7856 30.7871 33.3656 27.6333 33.3656H8.35744C5.20371 33.3656 2.6239 30.7856 2.6239 27.6321V8.35604C2.6239 5.20232 5.20371 2.6225 8.35744 2.6225Z" fill="#DEDEDE"/>
<path fill-rule="evenodd" clip-rule="evenodd" d="M5.73488 0H25.0095C28.1633 0 30.7443 2.57982 30.7443 5.73354V25.0095C30.7443 28.1633 28.1633 30.743 25.0095 30.743H5.73488C2.58116 30.743 0 28.1633 0 25.0095V5.73354C0 2.57982 2.58116 0 5.73488 0Z" fill="#182443"/>
<path fill-rule="evenodd" clip-rule="evenodd" d="M16.7445 6.20599H11.426C8.49969 6.20599 6.1059 8.56352 6.1059 11.4456C6.1059 14.3276 8.49969 16.6852 11.426 16.6852H14.0854H16.7445H19.4056C20.8568 16.6852 22.0458 17.8546 22.0458 19.2857C22.0458 20.7148 20.8568 21.8861 19.4056 21.8861H16.7651V19.1728H14.0854V21.2827V21.8861V24.5237H16.7651H19.4056C22.3302 24.5237 24.7239 22.1661 24.7239 19.2857C24.7239 16.4036 22.3302 14.0461 19.4056 14.0461H16.7445H14.0854H11.426C9.97309 14.0461 8.78558 12.8766 8.78558 11.4456C8.78558 10.0149 9.97309 8.84512 11.426 8.84512H14.0664V11.5585H16.7445V9.44855V8.84512V6.20599Z" fill="white"/>
</svg>
