<svg width="28" height="22" viewBox="0 0 28 22" fill="none" xmlns="http://www.w3.org/2000/svg">
<path d="M23.7033 1.76917C21.9187 0.950334 20.0049 0.347021 18.004 0.00144993C17.9675 -0.00522195 17.9311 0.0114577 17.9124 0.0447625C17.6662 0.482536 17.3936 1.05358 17.2027 1.50246C15.0506 1.18024 12.9094 1.18024 10.8014 1.50246C10.6105 1.04363 10.328 0.482536 10.0807 0.0447625C10.062 0.0125515 10.0255 -0.0041282 9.98911 0.00144993C7.98929 0.345872 6.07556 0.949185 4.28979 1.76917C4.27431 1.77584 4.26108 1.78694 4.25227 1.80138C0.622331 7.22447 -0.372108 12.5143 0.115705 17.7385C0.117893 17.764 0.132276 17.7885 0.152127 17.8041C2.54706 19.5629 4.86702 20.6306 7.14382 21.3384C7.18024 21.3495 7.21885 21.3362 7.24204 21.3061C7.78061 20.5706 8.26071 19.7951 8.67234 18.9796C8.69662 18.9318 8.67343 18.8751 8.62378 18.8562C7.86225 18.5674 7.13715 18.2151 6.43961 17.8152C6.38443 17.783 6.38 17.7041 6.43081 17.6663C6.57759 17.5563 6.72442 17.4419 6.86459 17.3263C6.88996 17.3052 6.92529 17.3008 6.9551 17.3141C11.5375 19.4062 16.4985 19.4062 21.0268 17.3141C21.0566 17.2996 21.0919 17.3041 21.1184 17.3252C21.2586 17.4407 21.4054 17.5563 21.5532 17.6662C21.604 17.704 21.6006 17.7829 21.5455 17.8152C20.848 18.2229 20.1229 18.5673 19.3603 18.8551C19.3106 18.874 19.2885 18.9318 19.3128 18.9795C19.7333 19.7939 20.2134 20.5694 20.7421 21.305C20.7641 21.3361 20.8038 21.3495 20.8403 21.3383C23.1281 20.6306 25.4481 19.5628 27.843 17.804C27.864 17.7885 27.8772 17.7651 27.8794 17.7396C28.4633 11.6998 26.9016 6.45338 23.7396 1.80248C23.7319 1.78694 23.7187 1.77584 23.7033 1.76917ZM9.35676 14.5575C7.97715 14.5575 6.84036 13.2909 6.84036 11.7354C6.84036 10.1799 7.95506 8.91328 9.35676 8.91328C10.7694 8.91328 11.8952 10.191 11.8731 11.7354C11.8731 13.2909 10.7583 14.5575 9.35676 14.5575ZM18.6606 14.5575C17.281 14.5575 16.1442 13.2909 16.1442 11.7354C16.1442 10.1799 17.2589 8.91328 18.6606 8.91328C20.0733 8.91328 21.199 10.191 21.177 11.7354C21.177 13.2909 20.0733 14.5575 18.6606 14.5575Z" fill="#5865F2"/>
</svg>
