<svg width="100" height="17" viewBox="0 0 100 17" fill="none" xmlns="http://www.w3.org/2000/svg">
<path d="M28.8817 16.6175H32.8053L25.5812 0.461411H21.8884L14.6874 16.6175H18.5187L19.9497 13.1555H27.4507L28.8817 16.6175ZM21.1498 10.3166L23.7117 4.13116L26.2736 10.3166H21.1498ZM45.6061 0.461411V10.2705L37.5742 0.461411H34.4815V16.6175H38.1743V6.80846L46.2293 16.6175H49.299V0.461411H45.6061ZM64.1769 16.6175H68.539L61.4534 7.66243L68.1467 0.461411H63.9922L56.8374 8.00863V0.461411H53.1215V16.6175H56.8374V12.5323L59.0069 10.2705L64.1769 16.6175ZM73.9221 13.6171V9.87812H81.4231V6.97002H73.9221V3.46183H82.4156V0.461411H70.2062V16.6175H82.7156V13.6171H73.9221ZM100 16.6175L96.3764 11.4245C98.4767 10.5244 99.6999 8.74719 99.6999 6.32378C99.6999 2.70019 96.9996 0.461411 92.6836 0.461411H85.6907V16.6175H89.4296V12.1169H92.6836H92.8682L95.984 16.6175H100ZM95.9148 6.32378C95.9148 8.07787 94.7608 9.13956 92.4758 9.13956H89.4296V3.50799H92.4758C94.7608 3.50799 95.9148 4.5466 95.9148 6.32378Z" fill="#18191D"/>
<path d="M13.4223 13.6377C14.21 11.794 13.8944 9.69256 12.5619 8.21414C12.3471 7.97604 12.3073 7.81484 12.4728 7.511C14.3475 4.12046 12.0655 0.0183004 8.30892 0.00610413C7.7066 0.00610413 7.10427 0.015649 6.50194 0.000271195C6.25449 -0.00556176 6.17659 0.0819326 6.17659 0.336992C6.18779 1.30367 6.18933 2.27089 6.17659 3.23809C6.17252 3.5133 6.25551 3.59814 6.51925 3.59391C7.44744 3.57906 8.37613 3.58436 9.30482 3.59391C9.45761 3.59391 9.70447 3.51224 9.62461 3.84896L9.62046 6.18214C9.65203 6.48015 9.43416 6.40008 9.29411 6.40115C8.39039 6.40751 7.48664 6.41547 6.58341 6.39744C6.27435 6.39107 6.16743 6.48493 6.17609 6.81635C6.19645 7.65205 6.18067 8.48935 6.18423 9.32559C6.18423 9.95134 6.42303 10.1926 7.0335 10.1941C8.02482 10.1941 9.01665 10.2042 10.0075 10.1894C10.3053 10.1852 10.4056 10.2954 10.3984 10.5982C10.3832 11.2775 10.3842 11.9573 10.3984 12.6371C10.4041 12.9277 10.3002 13.0258 10.0237 13.0226C8.98253 13.0109 7.9403 13.0289 6.89908 13.0157C4.96939 12.9914 3.49233 11.4631 3.48267 9.45336C3.46773 6.46054 3.46892 3.46752 3.48623 0.474332C3.48623 0.0930684 3.3844 -0.00715259 3.02493 0.00133171C2.02191 0.0251938 1.01785 0.00716471 0.014314 0.00557391C0.014314 3.54511 -0.0238725 7.08572 0.024497 10.6247C0.0647201 13.5942 2.37017 16.1634 5.20819 16.5107C6.59461 16.6804 7.98969 16.6099 9.37867 16.5585C10.3816 16.5213 11.2701 16.0944 12.0619 15.4528C12.0619 15.4476 13.1261 14.3992 13.4223 13.6377Z" fill="#18191D"/>
</svg>
