<svg width="108" height="22" viewBox="0 0 108 22" fill="none" xmlns="http://www.w3.org/2000/svg">
<path fill-rule="evenodd" clip-rule="evenodd" d="M21.9713 15.629C20.2076 19.2578 16.4861 21.7597 12.181 21.7597C11.3979 21.7597 10.6343 21.676 9.89792 21.5186C10.4025 21.5964 10.9192 21.6369 11.4454 21.6369C15.5629 21.6369 19.1042 19.1672 20.6699 15.629H21.9713ZM12.181 0C18.1887 0 23.0608 4.87194 23.0608 10.8798C23.0608 11.3083 23.0352 11.7306 22.9868 12.1463L21.2261 9.09655C20.1285 4.71612 16.1656 1.47121 11.4454 1.47121C5.87767 1.47121 1.36253 5.98628 1.36253 11.5541C1.36253 11.7244 1.3672 11.8934 1.37575 12.0616L1.3667 12.0774C1.32361 11.6839 1.30127 11.2845 1.30127 10.8798C1.30127 4.87194 6.17316 0 12.181 0Z" fill="#1E2931"/>
<path fill-rule="evenodd" clip-rule="evenodd" d="M1.62158 11.6362C1.62137 11.608 1.62048 11.5799 1.62048 11.5516C1.62048 6.10572 6.03672 1.68954 11.4826 1.68954C12.1923 1.68954 12.8847 1.76529 13.5519 1.90789C13.0946 1.83748 12.6261 1.80062 12.1493 1.80062C7.84301 1.80062 4.23202 4.78067 3.26461 8.79041L1.62158 11.6362ZM11.4826 21.4138C7.49073 21.4138 4.05238 19.0408 2.50069 15.629H4.30311C5.89989 18.2951 8.81625 20.0802 12.1493 20.0802C15.4822 20.0802 18.3986 18.2951 19.9954 15.629H20.4645C18.9127 19.0408 15.4743 21.4138 11.4826 21.4138Z" fill="#277EFB"/>
<path fill-rule="evenodd" clip-rule="evenodd" d="M0.297192 15.1181L0.249023 15.0347L5.09522 6.64154H9.45884L4.56488 15.1181H0.297192Z" fill="#1E2931"/>
<path fill-rule="evenodd" clip-rule="evenodd" d="M6.87616 11.1154L5.09509 6.64154H5.09519L7.78388 7.45265L7.45921 10.1052L6.87616 11.1154Z" fill="white"/>
<path fill-rule="evenodd" clip-rule="evenodd" d="M9.4591 6.64154L14.353 15.1181H9.98921L5.09509 6.64154H9.4591Z" fill="#277EFB"/>
<path fill-rule="evenodd" clip-rule="evenodd" d="M11.7628 10.6316L10.0148 15.0452L12.6859 14.2783L12.1806 11.2727L11.7628 10.6316Z" fill="white"/>
<path fill-rule="evenodd" clip-rule="evenodd" d="M10.0571 15.1181L10.0088 15.0347L14.8551 6.64154H19.2186L14.3248 15.1181H10.0571Z" fill="#277EFB"/>
<path fill-rule="evenodd" clip-rule="evenodd" d="M16.6358 11.1154L14.8547 6.64154H14.855L17.5435 7.45265L17.2189 10.1052L16.6358 11.1154Z" fill="white"/>
<path fill-rule="evenodd" clip-rule="evenodd" d="M19.2187 6.64154L24.1129 15.1181H19.7487L14.8547 6.64154H19.2187Z" fill="#1E2931"/>
<path d="M31.0846 11.9509C31.0846 11.9659 31.0733 12.1426 31.0508 12.4808H26.6086C26.6988 12.7965 26.8717 13.0408 27.1272 13.2136C27.3903 13.379 27.7172 13.4617 28.1081 13.4617C28.4013 13.4617 28.653 13.4203 28.8635 13.3377C29.0814 13.255 29.2995 13.1197 29.5174 12.9318L30.6449 14.1043C30.051 14.7658 29.1829 15.0965 28.0405 15.0965C27.3265 15.0965 26.6988 14.9612 26.1576 14.6906C25.6165 14.42 25.1956 14.0442 24.8949 13.5632C24.6018 13.0821 24.4552 12.5372 24.4552 11.9284C24.4552 11.3271 24.598 10.7896 24.8836 10.3161C25.1768 9.83507 25.5789 9.45925 26.09 9.18867C26.6011 8.91808 27.1761 8.78279 27.815 8.78279C28.4238 8.78279 28.9763 8.91056 29.4723 9.16612C29.9684 9.41416 30.3593 9.77869 30.6449 10.2597C30.938 10.7333 31.0846 11.297 31.0846 11.9509ZM27.8263 10.3048C27.4956 10.3048 27.2174 10.3988 26.992 10.5867C26.774 10.7746 26.6349 11.0302 26.5748 11.3534H29.0777C29.0176 11.0302 28.8748 10.7746 28.6493 10.5867C28.4314 10.3988 28.1569 10.3048 27.8263 10.3048ZM36.4016 14.747C36.2212 14.8597 35.9994 14.9462 35.7364 15.0063C35.4808 15.0664 35.2065 15.0965 34.9134 15.0965C34.1166 15.0965 33.5041 14.9011 33.0756 14.5102C32.6472 14.1193 32.433 13.5369 32.433 12.7627V10.7107H31.5423V9.10975H32.433V7.52005H34.5751V9.10975H35.9732V10.7107H34.5751V12.7401C34.5751 12.9581 34.6315 13.131 34.7443 13.2587C34.8646 13.379 35.0224 13.4391 35.2178 13.4391C35.4658 13.4391 35.6838 13.3752 35.8717 13.2475L36.4016 14.747ZM39.9448 8.78279C40.9595 8.78279 41.7336 9.0158 42.2674 9.4818C42.801 9.9403 43.0678 10.6468 43.0678 11.6014V14.995H41.0723V14.2058C40.764 14.7996 40.1628 15.0965 39.2684 15.0965C38.7948 15.0965 38.3851 15.0138 38.0394 14.8484C37.6937 14.683 37.4306 14.4614 37.2502 14.1832C37.0773 13.8977 36.9909 13.5744 36.9909 13.2136C36.9909 12.6349 37.2126 12.1877 37.6561 11.872C38.0995 11.5487 38.7836 11.3872 39.7081 11.3872H40.9257C40.888 10.7408 40.4559 10.4176 39.6291 10.4176C39.336 10.4176 39.039 10.4664 38.7385 10.5642C38.4378 10.6543 38.1822 10.7821 37.9718 10.9475L37.2502 9.49308C37.5885 9.26759 37.9981 9.09472 38.4791 8.97445C38.9677 8.84668 39.4562 8.78279 39.9448 8.78279ZM39.8659 13.7435C40.1139 13.7435 40.3319 13.6835 40.5198 13.5632C40.7077 13.4429 40.8429 13.2663 40.9257 13.0333V12.5034H40.0012C39.3773 12.5034 39.0654 12.71 39.0654 13.1234C39.0654 13.3114 39.1368 13.4617 39.2796 13.5744C39.4224 13.6872 39.6179 13.7435 39.8659 13.7435ZM50.8603 8.88426L48.3348 14.995H46.125L43.6108 8.88426H45.8093L47.275 12.6161L48.8196 8.88426H50.8603ZM57.6077 11.9509C57.6077 11.9659 57.5964 12.1426 57.5739 12.4808H53.1317C53.2219 12.7965 53.3948 13.0408 53.6504 13.2136C53.9134 13.379 54.2404 13.4617 54.6313 13.4617C54.9244 13.4617 55.1761 13.4203 55.3866 13.3377C55.6046 13.255 55.8226 13.1197 56.0406 12.9318L57.168 14.1043C56.5742 14.7658 55.706 15.0965 54.5636 15.0965C53.8496 15.0965 53.2219 14.9612 52.6808 14.6906C52.1396 14.42 51.7187 14.0442 51.418 13.5632C51.1249 13.0821 50.9783 12.5372 50.9783 11.9284C50.9783 11.3271 51.1212 10.7896 51.4068 10.3161C51.6999 9.83507 52.1021 9.45925 52.6131 9.18867C53.1242 8.91808 53.6992 8.78279 54.3381 8.78279C54.9469 8.78279 55.4994 8.91056 55.9955 9.16612C56.4915 9.41416 56.8824 9.77869 57.168 10.2597C57.4611 10.7333 57.6077 11.297 57.6077 11.9509ZM54.3494 10.3048C54.0187 10.3048 53.7406 10.3988 53.5151 10.5867C53.2971 10.7746 53.158 11.0302 53.0979 11.3534H55.6009C55.5408 11.0302 55.3979 10.7746 55.1724 10.5867C54.9545 10.3988 54.6801 10.3048 54.3494 10.3048ZM60.7488 9.6171C60.9667 9.33899 61.2486 9.1323 61.5943 8.997C61.9476 8.85419 62.3497 8.78279 62.8007 8.78279V10.7107C62.6053 10.6882 62.4436 10.6769 62.3159 10.6769C61.8574 10.6769 61.4966 10.8009 61.2336 11.049C60.978 11.297 60.8502 11.6766 60.8502 12.1877V14.995H58.7081V8.88426H60.7488V9.6171ZM66.0295 15.0965C65.5184 15.0965 65.0148 15.0401 64.5187 14.9274C64.0226 14.8071 63.6243 14.6531 63.3236 14.4651L63.9663 12.9994C64.2444 13.1723 64.5751 13.3114 64.9584 13.4166C65.3417 13.5143 65.7214 13.5632 66.0971 13.5632C66.4429 13.5632 66.6872 13.5293 66.83 13.4617C66.9804 13.3865 67.0555 13.2813 67.0555 13.146C67.0555 13.0107 66.9653 12.9168 66.7849 12.8641C66.612 12.804 66.3339 12.7477 65.9506 12.695C65.462 12.6349 65.0449 12.556 64.6991 12.4583C64.3609 12.3605 64.0677 12.1801 63.8197 11.9171C63.5717 11.6541 63.4476 11.2857 63.4476 10.8122C63.4476 10.4213 63.5642 10.0756 63.7971 9.77494C64.0302 9.46677 64.3684 9.22625 64.8118 9.05338C65.2628 8.87298 65.8003 8.78279 66.4241 8.78279C66.8676 8.78279 67.3073 8.82789 67.7432 8.91808C68.1792 9.00828 68.5437 9.13605 68.8368 9.30141L68.1942 10.7558C67.653 10.4552 67.0667 10.3048 66.4354 10.3048C66.0971 10.3048 65.8491 10.3462 65.6912 10.4289C65.5334 10.504 65.4545 10.6055 65.4545 10.7333C65.4545 10.8761 65.541 10.9776 65.7138 11.0377C65.8867 11.0903 66.1723 11.1467 66.5707 11.2068C67.0743 11.282 67.4914 11.3684 67.8221 11.4661C68.1529 11.5639 68.4385 11.7442 68.679 12.0073C68.927 12.2629 69.051 12.6237 69.051 13.0896C69.051 13.473 68.9346 13.8187 68.7015 14.1269C68.4686 14.4276 68.1228 14.6643 67.6643 14.8372C67.2133 15.01 66.6684 15.0965 66.0295 15.0965ZM76.333 11.9509C76.333 11.9659 76.3217 12.1426 76.2991 12.4808H71.857C71.9472 12.7965 72.1201 13.0408 72.3756 13.2136C72.6387 13.379 72.9656 13.4617 73.3565 13.4617C73.6497 13.4617 73.9014 13.4203 74.1119 13.3377C74.3298 13.255 74.5479 13.1197 74.7658 12.9318L75.8933 14.1043C75.2994 14.7658 74.4313 15.0965 73.2889 15.0965C72.5749 15.0965 71.9472 14.9612 71.406 14.6906C70.8649 14.42 70.444 14.0442 70.1433 13.5632C69.8502 13.0821 69.7036 12.5372 69.7036 11.9284C69.7036 11.3271 69.8464 10.7896 70.132 10.3161C70.4252 9.83507 70.8273 9.45925 71.3384 9.18867C71.8495 8.91808 72.4245 8.78279 73.0634 8.78279C73.6722 8.78279 74.2247 8.91056 74.7207 9.16612C75.2168 9.41416 75.6077 9.77869 75.8933 10.2597C76.1864 10.7333 76.333 11.297 76.333 11.9509ZM73.0747 10.3048C72.744 10.3048 72.4658 10.3988 72.2403 10.5867C72.0224 10.7746 71.8833 11.0302 71.8232 11.3534H74.3261C74.266 11.0302 74.1232 10.7746 73.8977 10.5867C73.6798 10.3988 73.4053 10.3048 73.0747 10.3048Z" fill="#277EFB"/>
<path d="M82.8227 13.4617H79.4854L78.8653 14.995H76.5879L80.0717 7.10291H82.2702L85.7653 14.995H83.4428L82.8227 13.4617ZM82.1687 11.8156L81.154 9.29015L80.1393 11.8156H82.1687ZM90.254 8.7828C90.8103 8.7828 91.3138 8.91434 91.7648 9.1774C92.2233 9.43296 92.5841 9.80125 92.8471 10.2823C93.1177 10.7558 93.253 11.3083 93.253 11.9396C93.253 12.571 93.1177 13.1272 92.8471 13.6083C92.5841 14.0818 92.2233 14.4501 91.7648 14.7132C91.3138 14.9687 90.8103 15.0965 90.254 15.0965C89.54 15.0965 88.9725 14.8823 88.5515 14.4538V17.1823H86.4094V8.88427H88.4501V9.49309C88.8485 9.01956 89.4498 8.7828 90.254 8.7828ZM89.803 13.394C90.1789 13.394 90.487 13.2663 90.7275 13.0107C90.9681 12.7477 91.0883 12.3906 91.0883 11.9396C91.0883 11.4887 90.9681 11.1354 90.7275 10.8798C90.487 10.6168 90.1789 10.4852 89.803 10.4852C89.4272 10.4852 89.1191 10.6168 88.8785 10.8798C88.638 11.1354 88.5177 11.4887 88.5177 11.9396C88.5177 12.3906 88.638 12.7477 88.8785 13.0107C89.1191 13.2663 89.4272 13.394 89.803 13.394ZM98.2061 8.7828C98.7622 8.7828 99.2659 8.91434 99.7169 9.1774C100.175 9.43296 100.536 9.80125 100.799 10.2823C101.07 10.7558 101.205 11.3083 101.205 11.9396C101.205 12.571 101.07 13.1272 100.799 13.6083C100.536 14.0818 100.175 14.4501 99.7169 14.7132C99.2659 14.9687 98.7622 15.0965 98.2061 15.0965C97.4919 15.0965 96.9245 14.8823 96.5036 14.4538V17.1823H94.3615V8.88427H96.4022V9.49309C96.8005 9.01956 97.4018 8.7828 98.2061 8.7828ZM97.7551 13.394C98.1309 13.394 98.439 13.2663 98.6796 13.0107C98.9201 12.7477 99.0404 12.3906 99.0404 11.9396C99.0404 11.4887 98.9201 11.1354 98.6796 10.8798C98.439 10.6168 98.1309 10.4852 97.7551 10.4852C97.3792 10.4852 97.0711 10.6168 96.8306 10.8798C96.59 11.1354 96.4698 11.4887 96.4698 11.9396C96.4698 12.3906 96.59 12.7477 96.8306 13.0107C97.0711 13.2663 97.3792 13.394 97.7551 13.394ZM104.535 15.0965C104.023 15.0965 103.52 15.0401 103.024 14.9274C102.528 14.8071 102.129 14.6531 101.829 14.4651L102.471 12.9994C102.749 13.1723 103.08 13.3114 103.463 13.4166C103.847 13.5143 104.226 13.5632 104.602 13.5632C104.948 13.5632 105.192 13.5293 105.335 13.4617C105.485 13.3865 105.561 13.2813 105.561 13.146C105.561 13.0107 105.47 12.9168 105.29 12.8641C105.117 12.8041 104.839 12.7477 104.456 12.695C103.967 12.6349 103.55 12.556 103.204 12.4583C102.866 12.3605 102.573 12.1801 102.325 11.9171C102.077 11.6541 101.953 11.2857 101.953 10.8122C101.953 10.4213 102.069 10.0756 102.302 9.77495C102.535 9.46678 102.873 9.22626 103.317 9.05338C103.768 8.87299 104.305 8.7828 104.929 8.7828C105.373 8.7828 105.812 8.8279 106.248 8.91809C106.684 9.00829 107.049 9.13606 107.342 9.30142L106.699 10.7558C106.158 10.4552 105.572 10.3048 104.94 10.3048C104.602 10.3048 104.354 10.3462 104.196 10.4289C104.038 10.504 103.96 10.6055 103.96 10.7333C103.96 10.8761 104.046 10.9776 104.219 11.0377C104.392 11.0903 104.677 11.1467 105.076 11.2068C105.579 11.282 105.996 11.3684 106.327 11.4661C106.658 11.5639 106.944 11.7443 107.184 12.0073C107.432 12.2629 107.556 12.6237 107.556 13.0896C107.556 13.473 107.44 13.8188 107.207 14.1269C106.974 14.4276 106.628 14.6643 106.169 14.8372C105.718 15.01 105.173 15.0965 104.535 15.0965Z" fill="#182443"/>
</svg>
